<?xml version="1.0" encoding="UTF-8" standalone="no"?>
<!-- Created with Inkscape (http://www.inkscape.org/) -->

<svg
   width="283.10416mm"
   height="112.7125mm"
   viewBox="0 0 283.10416 112.7125"
   version="1.1"
   id="svg5"
   xml:space="preserve"
   inkscape:version="1.2.2 (b0a8486541, 2022-12-01)"
   sodipodi:docname="logo_large.svg"
   xmlns:inkscape="http://www.inkscape.org/namespaces/inkscape"
   xmlns:sodipodi="http://sodipodi.sourceforge.net/DTD/sodipodi-0.dtd"
   xmlns="http://www.w3.org/2000/svg"
   xmlns:svg="http://www.w3.org/2000/svg"><sodipodi:namedview
     id="namedview7"
     pagecolor="#ffffff"
     bordercolor="#000000"
     borderopacity="0.25"
     inkscape:showpageshadow="2"
     inkscape:pageopacity="0.0"
     inkscape:pagecheckerboard="0"
     inkscape:deskcolor="#d1d1d1"
     inkscape:document-units="mm"
     showgrid="false"
     inkscape:zoom="0.914906"
     inkscape:cx="490.21429"
     inkscape:cy="259.043"
     inkscape:window-width="2560"
     inkscape:window-height="1371"
     inkscape:window-x="0"
     inkscape:window-y="32"
     inkscape:window-maximized="1"
     inkscape:current-layer="layer1" /><defs
     id="defs2" /><g
     inkscape:label="Layer 1"
     inkscape:groupmode="layer"
     id="layer1"
     transform="translate(31.130709,-79.830656)"><path
       style="fill:none;stroke-width:0.264583;stroke:#000000;stroke-opacity:1"
       d="M -31.130709,136.18691 V 79.830656 H 110.42138 251.97346 v 56.356254 56.35625 H 110.42138 -31.130709 Z m 249.607229,49.76421 c 0.28915,-0.23998 0.42245,-0.66733 0.37139,-1.19063 -0.0706,-0.72333 -0.44592,-1.05732 -3.29598,-2.93295 -4.79686,-3.15683 -9.05964,-5.56407 -15.88981,-8.97316 -3.37785,-1.68596 -6.21309,-3.06538 -6.30052,-3.06538 -0.0874,0 -0.89562,-0.34125 -1.79596,-0.75832 -11.78351,-5.45866 -28.6791,-10.89037 -42.5151,-13.66803 -32.41359,-6.50725 -62.877424,-5.27134 -94.323959,3.82667 -0.873125,0.25261 -1.766094,0.52503 -1.984375,0.60538 -0.218282,0.0803 -1.468438,0.46708 -2.778125,0.8594 -1.309688,0.39232 -2.797969,0.87287 -3.307292,1.0679 -0.509323,0.19503 -1.81901,0.67292 -2.910416,1.06198 -3.356198,1.1964 -12.004728,4.65327 -12.624546,5.04611 -0.322302,0.20428 -0.710504,0.37141 -0.862672,0.37141 -0.537276,0 -9.359248,4.33102 -14.16174,6.95251 -6.5155091,3.55655 -13.9385161,8.26504 -14.3636221,9.11098 -0.3718746,0.74002 0.014896,1.75403 0.7472309,1.95911 0.3584945,0.1004 49.0026512,0.16427 108.0981362,0.14195 92.20168,-0.0348 107.51031,-0.0937 107.89736,-0.41493 z M 8.177741,183.31159 c -0.1186207,-0.19193 2.972066,-2.26204 3.950887,-2.64625 0.145542,-0.0571 0.562277,-0.30671 0.926079,-0.55462 0.363802,-0.24791 1.468773,-0.88986 2.455494,-1.42656 0.986719,-0.53669 2.236875,-1.22698 2.778125,-1.53397 0.541248,-0.30699 2.650964,-1.38023 4.688255,-2.38497 2.037292,-1.00475 4.001823,-1.98447 4.365625,-2.17716 1.023268,-0.54199 9.17838,-4.12198 9.389748,-4.12198 0.103163,0 0.562753,-0.16767 1.021307,-0.37261 4.652944,-2.07949 14.362102,-5.31864 23.455611,-7.82522 2.56027,-0.70573 9.014791,-2.1539 12.303125,-2.7604 2.037291,-0.37576 4.299479,-0.80082 5.027083,-0.94457 0.727604,-0.14376 3.108854,-0.49454 5.291667,-0.77951 9.836065,-1.28414 14.879134,-1.60495 25.135423,-1.59897 10.78079,0.006 18.65759,0.55158 28.70729,1.98738 6.81112,0.9731 17.80533,3.337 24.60625,5.29067 7.11861,2.04493 15.64667,4.91926 20.6375,6.95573 7.66682,3.12839 19.05076,8.56289 23.94479,11.43082 1.30969,0.76749 3.0655,1.76466 3.90181,2.21595 0.83631,0.45129 1.52092,0.96935 1.52135,1.15125 5.3e-4,0.26401 -20.57142,0.33073 -101.98046,0.33073 -59.384518,0 -102.0421178,-0.0985 -102.126959,-0.23574 z M 109.6881,177.56451 c 1.21609,-0.77878 1.20276,-0.779 1.83888,0.0297 0.30381,0.38623 0.79192,0.66145 1.1731,0.66145 0.97759,0 2.53455,-0.89458 3.2503,-1.86753 l 0.63422,-0.86211 0.49507,0.965 c 0.76595,1.493 1.50083,1.84343 3.59351,1.71359 1.39306,-0.0864 2.01349,-0.26792 2.81585,-0.82366 0.66587,-0.4612 1.37581,-0.71279 2.01139,-0.71279 1.29025,0 2.54447,-0.8722 3.50298,-2.43603 0.62407,-1.01819 0.71056,-1.34403 0.47406,-1.78594 -0.45745,-0.85476 -0.97734,-0.64176 -1.90967,0.78239 -0.9084,1.38759 -1.73444,1.80793 -1.4299,0.7276 0.0923,-0.32742 0.2395,-1.30968 0.32712,-2.18281 0.30877,-3.0772 -1.03178,-4.58581 -3.7872,-4.26196 -0.77468,0.0911 -1.40852,0.0616 -1.40852,-0.0654 0,-0.12704 0.40589,-1.43861 0.90198,-2.91458 l 0.90197,-2.68359 -0.56397,-0.39502 c -0.81274,-0.56927 -1.69812,-0.48641 -2.14017,0.20029 -0.46745,0.72615 -2.0787,5.4274 -2.78593,8.12867 -0.28469,1.08741 -0.68369,2.09944 -0.88666,2.24896 -0.20297,0.14952 -0.58436,0.72672 -0.84753,1.28268 -0.62607,1.32256 -1.97531,2.67958 -2.32076,2.33414 -0.30558,-0.30558 0.0745,-2.16136 1.01926,-4.97691 0.35002,-1.04309 0.6364,-2.08873 0.6364,-2.32363 0,-0.81143 -2.04002,-1.05962 -2.586,-0.31461 -0.12149,0.16579 -0.61129,1.49205 -1.08843,2.94726 -0.47714,1.45521 -1.11253,3.01048 -1.41197,3.45615 -0.66539,0.99036 -1.90099,1.75376 -2.25902,1.39573 -0.36711,-0.36712 0.30528,-3.81066 1.05981,-5.42761 0.14776,-0.31665 0.28301,-1.03103 0.30057,-1.5875 l 0.0319,-1.01177 h -1.16611 -1.16611 l -0.63006,1.85209 c -1.34391,3.95042 -1.75012,5.95834 -1.42496,7.04365 0.33315,1.11194 0.52742,1.28875 1.71831,1.56388 1.08897,0.25158 1.93726,0.0617 3.12628,-0.69973 z m 10.003,-1.93729 c -0.37845,-0.70713 -0.3383,-1.77058 0.12442,-3.29585 0.47756,-1.57418 0.80183,-1.98856 1.92284,-2.45714 0.65823,-0.27515 0.99876,-0.29088 1.41969,-0.0656 0.48611,0.26016 0.53881,0.47655 0.43144,1.77131 -0.0978,1.17922 -0.25838,1.5852 -0.80093,2.02482 -0.37325,0.30243 -0.71894,0.84753 -0.76822,1.21133 -0.16991,1.25445 -1.79004,1.81865 -2.32924,0.81114 z m -24.759707,2.46409 c 0.57781,-0.22173 1.046181,-1.23572 1.45175,-3.14294 0.185669,-0.87312 0.379865,-1.73495 0.431549,-1.91516 0.06803,-0.23722 0.524375,-0.28268 1.653328,-0.16468 3.98949,0.41698 6.90615,-2.174 6.92046,-6.14774 0.007,-1.88513 -0.43373,-2.91597 -1.73398,-4.05761 -1.45311,-1.27585 -2.61853,-1.6518 -5.139379,-1.6579 -1.841984,-0.004 -2.522402,0.11604 -3.76002,0.66586 -2.823668,1.25444 -4.148195,3.24527 -3.782327,5.68505 0.26656,1.77755 1.029711,2.74801 2.080686,2.64589 0.770215,-0.0748 0.827619,-0.149 0.779412,-1.00683 -0.02862,-0.50933 -0.129418,-1.35946 -0.223991,-1.88918 -0.151879,-0.85069 -0.06151,-1.08539 0.773973,-2.01017 0.6121,-0.67752 1.391459,-1.18933 2.208368,-1.45025 1.598327,-0.51051 2.244282,-0.31635 1.153819,0.3468 -1.175697,0.71498 -1.946241,2.5022 -3.183567,7.38405 -0.608568,2.40109 -1.239197,4.74474 -1.401398,5.2081 -0.455369,1.30086 0.40363,2.03154 1.771317,1.50671 z m 2.789978,-8.03039 c 0,-1.17636 0.860608,-3.50466 1.611563,-4.35995 0.857276,-0.97638 1.025306,-1.99739 0.32871,-1.99739 -0.24253,0 -0.36957,-0.0714 -0.28231,-0.15866 0.33572,-0.33572 2.063876,0.49866 2.604056,1.25727 0.66337,0.93162 0.7285,2.72007 0.14047,3.8572 -0.65732,1.27112 -1.39741,1.73968 -2.951386,1.86855 -1.358771,0.11268 -1.451103,0.083 -1.451103,-0.46702 z m -11.972395,2.43159 c 0.286506,-0.24983 -0.03055,-1.41373 -0.445627,-1.63587 -0.59095,-0.31627 -22.453745,-0.38431 -22.943553,-0.0714 -0.633272,0.40455 -0.533368,1.60131 0.154985,1.85655 0.434758,0.16121 23.044721,0.0159 23.234195,-0.14928 z m 72.781604,-0.71897 c 0.0488,-0.41131 -0.068,-0.835 -0.26458,-0.95959 -0.19355,-0.12271 -5.35955,-0.22492 -11.47999,-0.22715 -12.14232,-0.004 -12.27569,0.0113 -11.92537,1.40712 l 0.17563,0.69976 11.17432,0.069 c 6.14588,0.038 11.41245,-0.003 11.70349,-0.0918 0.32945,-0.10013 0.56213,-0.43881 0.6165,-0.89733 z m 60.66377,-1.98454 c 0.11847,-0.21828 0.86055,-1.46844 1.64907,-2.77813 0.78851,-1.30969 2.38198,-4.16719 3.54104,-6.35 2.6446,-4.98046 3.3173,-6.17091 4.75775,-8.41945 1.39789,-2.18213 1.63085,-3.07068 0.95804,-3.65423 -0.43295,-0.37551 -2.37982,-1.50213 -4.38479,-2.53742 -1.06266,-0.54871 -1.67807,-0.21464 -2.44938,1.32959 -0.3778,0.7564 -1.33009,2.50636 -2.1162,3.8888 -0.78611,1.38245 -1.62824,2.93026 -1.87142,3.43959 -0.24317,0.50932 -0.5213,1.09092 -0.61807,1.29243 -0.33533,0.69831 -0.68668,0.30419 -0.85057,-0.95413 -0.71901,-5.52033 -1.49392,-10.60818 -1.86493,-12.24455 -0.52563,-2.31838 -0.67109,-2.50292 -2.99121,-3.79483 -1.21713,-0.67774 -2.32079,-1.23226 -2.45256,-1.23226 -0.45402,0 -1.30776,1.19543 -2.17301,3.04271 -0.47712,1.01865 -1.02323,2.03068 -1.21357,2.24896 -0.19033,0.21828 -0.95667,1.57145 -1.70298,3.00704 -0.7463,1.43559 -1.57463,2.92387 -1.84074,3.30729 -0.73819,1.0636 -3.39853,5.65482 -3.62347,6.25338 -0.10938,0.29104 -0.53309,1.05849 -0.94159,1.70544 -1.0819,1.71346 -0.99622,2.42492 0.38176,3.17013 3.42159,1.85038 4.64557,2.40335 5.01011,2.26346 0.22299,-0.0856 0.71395,-0.83389 1.09102,-1.66293 0.37706,-0.82904 0.96918,-1.9836 1.31581,-2.56568 0.34663,-0.58209 1.14313,-2.02051 1.76999,-3.19649 1.4751,-2.76724 1.79232,-3.19416 2.1257,-2.86078 0.26144,0.26144 0.58625,2.20414 1.05918,6.33512 0.13411,1.17147 0.43346,3.22874 0.66522,4.57172 0.23176,1.34297 0.3613,2.64668 0.28787,2.89714 -0.2857,0.97442 0.47031,1.92897 2.35166,2.96926 1.98585,1.09807 3.70204,1.3178 4.13027,0.52882 z M 5.0753639,167.68643 c 2.1385979,-0.72044 5.9173261,-3.06056 7.6035471,-4.70878 2.008629,-1.96336 2.624754,-3.3767 2.624754,-6.02094 0,-1.68589 -0.126272,-2.37309 -0.620451,-3.37661 -0.785103,-1.59431 -2.108025,-2.96367 -3.400776,-3.52015 -2.2454361,-0.96658 -7.0261633,-0.45537 -10.63449515,1.13715 -0.4935643,0.21783 -1.34055907,0.4555 -1.88220875,0.52815 -0.8164486,0.10951 -1.0588307,0.0264 -1.4177142,-0.48595 -0.6518724,-0.93068 -0.5317886,-1.43859 0.5511694,-2.33126 1.42172527,-1.1719 2.97953898,-1.83109 5.1657778,-2.18588 1.0559733,-0.17137 2.0059359,-0.38212 2.1110284,-0.46834 0.3173941,-0.26041 0.8095033,-4.17764 0.6197864,-4.93354 l -0.1769136,-0.70487 -2.5659344,0.14177 c -3.10657875,0.17164 -5.3329151,0.8801 -7.7253093,2.45831 -3.7620241,2.48173 -5.2916665,4.71824 -5.2916665,7.73703 0,1.48508 0.143365,2.10552 0.781677,3.3829 0.8820441,1.76513 2.4022401,3.35023 3.5839479,3.73697 0.4365625,0.14288 1.6867187,0.2843 2.7781249,0.31427 2.06090034,0.0566 3.56288165,-0.34167 7.2760415,-1.92927 1.8714905,-0.80017 2.0349633,-0.81556 3.0558475,-0.28764 0.6319678,0.3268 0.7806107,0.57479 0.7806107,1.3023 0,0.72045 -0.209034,1.07756 -1.0542111,1.801 -0.5798158,0.4963 -1.6811439,1.2451 -2.4473957,1.66401 -1.2660736,0.69216 -1.6339979,0.76259 -4.03260455,0.7719 -2.58409805,0.01 -2.64343615,0.0241 -2.83107335,0.6717 -0.5296084,1.82785 -1.0384525,4.576 -0.9095025,4.91204 0.087614,0.22832 0.5444517,0.39211 1.1461723,0.41093 0.5502698,0.0172 1.35767759,0.1222 1.79424005,0.23328 1.46329665,0.37235 3.57558715,0.26896 5.11753115,-0.25048 z M 186.15656,152.3265 c 0.39919,-0.80037 0.79952,-2.00034 0.88963,-2.66661 l 0.16384,-1.21139 -1.28651,-0.54982 c -0.70759,-0.3024 -1.8223,-0.69166 -2.47714,-0.86502 -0.65485,-0.17336 -1.71479,-0.55292 -2.35543,-0.84346 -0.64064,-0.29054 -1.77173,-0.68772 -2.51354,-0.88262 -0.74181,-0.19491 -1.80186,-0.54523 -2.35568,-0.77849 -0.85355,-0.3595 -0.97931,-0.5133 -0.82558,-1.0097 0.45824,-1.47972 1.06587,-2.5699 1.43191,-2.56907 0.22034,5.3e-4 1.25479,0.349 2.29879,0.77444 1.044,0.42544 2.65135,0.97965 3.57188,1.23158 0.92053,0.25194 2.11543,0.67735 2.65533,0.94536 1.63022,0.80925 2.26847,0.66527 2.82454,-0.63718 0.26405,-0.61847 0.643,-1.76314 0.8421,-2.54372 0.35122,-1.37693 0.34364,-1.43411 -0.25422,-1.91823 -0.33892,-0.27444 -0.78325,-0.49899 -0.98738,-0.49899 -0.20413,0 -0.5779,-0.10636 -0.83059,-0.23637 -0.25268,-0.13 -1.11427,-0.38359 -1.91463,-0.56354 -0.80037,-0.17995 -1.57428,-0.401 -1.7198,-0.49124 -0.14552,-0.0902 -1.21708,-0.47651 -2.38125,-0.8584 -1.84249,-0.6044 -2.12717,-0.78079 -2.19775,-1.36179 -0.10945,-0.90091 0.61848,-2.57408 1.11988,-2.57408 0.37409,0 3.29708,1.01453 4.51746,1.56795 0.29104,0.13198 0.76729,0.30059 1.05833,0.37469 0.29104,0.0741 1.5412,0.49667 2.77813,0.93904 2.71465,0.97087 3.00818,0.99072 3.35948,0.22718 0.42948,-0.93344 1.33622,-3.44197 1.48947,-4.12068 0.16413,-0.72686 -0.61496,-1.63401 -1.40333,-1.63401 -0.28772,0 -1.32952,-0.30593 -2.31511,-0.67986 -1.62755,-0.61747 -4.2566,-1.51213 -6.68676,-2.27547 -0.50933,-0.15999 -1.4023,-0.50132 -1.98438,-0.75853 -1.86265,-0.82304 -4.75888,-1.84239 -5.23472,-1.84239 -0.55022,0 -1.46199,1.87574 -2.46677,5.0748 -0.38026,1.21068 -0.90516,2.67749 -1.16646,3.25958 -0.26129,0.58208 -0.97865,2.60614 -1.59412,4.49791 -0.61548,1.89177 -1.53373,4.45162 -2.04056,5.68854 -1.27296,3.10665 -1.60892,4.66051 -1.11027,5.13514 0.21105,0.20088 1.63389,0.79133 3.16186,1.31211 1.52797,0.52077 5.33797,1.83518 8.46667,2.9209 3.12869,1.08572 5.92666,1.95213 6.2177,1.92534 0.35506,-0.0327 0.76798,-0.52749 1.25498,-1.5039 z M 40.831974,151.56166 c 2.938611,-1.00027 4.832757,-2.33358 6.375172,-4.48754 1.401585,-1.95729 1.662557,-3.06281 1.477037,-6.257 -0.140317,-2.41591 -0.370237,-3.5542 -1.015402,-5.02708 -0.127484,-0.29104 -0.810401,-2.25557 -1.517592,-4.36563 -2.632686,-7.85517 -2.488094,-7.54486 -3.499125,-7.50942 -0.807167,0.0283 -4.549704,1.16004 -5.520275,1.66934 -0.605726,0.31785 -0.621964,0.97818 -0.0543,2.20827 0.599752,1.29965 1.483211,3.62594 1.881661,4.95473 0.697084,2.3247 1.427321,4.44271 1.824434,5.29167 0.247907,0.52998 0.474263,1.83132 0.529251,3.04271 0.08501,1.87285 0.02498,2.22095 -0.521126,3.02203 -0.853008,1.25125 -2.187582,1.93808 -3.817739,1.96476 -2.568733,0.0421 -3.829002,-1.47658 -5.429908,-6.54311 -0.603176,-1.90892 -1.488014,-4.54233 -1.966307,-5.85202 -0.47829,-1.30969 -1.032362,-2.8575 -1.23127,-3.43958 -0.47349,-1.38561 -0.954474,-1.41896 -4.311565,-0.29898 l -2.645834,0.88269 0.0342,1.03106 c 0.03698,1.11475 4.124323,13.26831 5.089033,15.13205 1.170035,2.2604 3.513312,4.33402 5.858402,5.18423 1.914871,0.69423 5.374174,0.44763 8.461258,-0.60318 z m 112.976836,-9.56109 c -1.23095,-2.08771 -3.69993,-7.07332 -3.69993,-7.47128 0,-0.18893 0.55067,-0.50611 1.22371,-0.70484 1.87094,-0.55242 4.1053,-2.88233 4.58521,-4.78129 1.03201,-4.08357 -0.22411,-7.73748 -3.3467,-9.73513 -1.84199,-1.1784 -3.60086,-1.68184 -8.54764,-2.44659 -1.09141,-0.16873 -2.97125,-0.53296 -4.17744,-0.8094 -2.46871,-0.5658 -3.6479,-0.63358 -3.9009,-0.22421 -0.0946,0.15313 -0.41101,1.67118 -0.70305,3.37344 -0.29204,1.70226 -0.64463,3.6308 -0.78354,4.28564 -0.1389,0.65485 -0.35243,1.905 -0.4745,2.77813 -0.12208,0.87312 -0.40214,2.48047 -0.62237,3.57187 -0.22023,1.09141 -0.53807,2.93688 -0.7063,4.10105 -0.16824,1.16416 -0.40936,2.47385 -0.53582,2.91041 -0.39115,1.35031 -0.54717,2.89511 -0.32635,3.23128 0.29875,0.45482 6.6329,1.54589 6.97699,1.20179 0.14714,-0.14714 0.44009,-1.68103 0.651,-3.40863 0.2109,-1.72761 0.44425,-3.33846 0.51857,-3.57968 0.19178,-0.62255 0.76685,-0.77398 1.7017,-0.44808 0.70827,0.2469 1.06843,0.8174 2.92034,4.62583 1.51869,3.12318 2.27906,4.40882 2.70528,4.57409 0.32607,0.12644 2.0216,0.45822 3.76785,0.73728 2.92867,0.46802 3.19195,0.47373 3.39349,0.0736 0.14985,-0.29752 -0.0448,-0.88042 -0.6196,-1.85524 z M 143.62658,128.6585 c -2.15556,-0.45191 -2.55673,-0.64992 -2.3888,-1.17904 0.11816,-0.37227 0.63502,-3.96057 0.66084,-4.58786 0.0121,-0.2941 2.23767,-0.24046 3.66132,0.0883 2.71194,0.62616 3.47595,1.33639 3.48472,3.23939 0.005,1.06307 -0.12374,1.40675 -0.76752,2.05053 -0.88199,0.88199 -1.8942,0.9666 -4.65056,0.38873 z m -69.904991,13.75862 c 1.048891,-0.21141 2.311786,-0.41977 2.806433,-0.46302 1.26275,-0.11042 1.547408,-0.68448 1.115912,-2.25042 -0.192141,-0.69729 -0.443582,-1.92265 -0.558758,-2.72302 -0.242009,-1.68174 -0.828656,-5.31751 -1.62951,-10.09897 -0.308798,-1.84366 -0.499012,-3.51481 -0.422704,-3.71368 0.127609,-0.33253 1.547516,-0.64294 5.283345,-1.155 1.483808,-0.20338 1.662825,-0.54879 1.410695,-2.7219 -0.438443,-3.77891 -0.485989,-3.82876 -3.187922,-3.34221 -1.018646,0.18344 -3.042708,0.52893 -4.497916,0.76776 -1.455209,0.23884 -3.479271,0.61119 -4.497917,0.82745 -1.018646,0.21626 -2.62599,0.50683 -3.571875,0.6457 -4.778549,0.70159 -5.717072,0.88772 -6.048645,1.19959 -0.303408,0.28538 -0.288073,0.73876 0.09739,2.87957 l 0.457494,2.54086 1.490109,-0.0139 c 0.819563,-0.008 2.356919,-0.16905 3.416348,-0.35865 1.396714,-0.24997 1.978049,-0.26433 2.114722,-0.0522 0.360159,0.55893 2.180246,10.55004 2.728346,14.97689 0.32507,2.62548 0.602861,3.43958 1.173678,3.43958 0.227537,0 1.271887,-0.17297 2.320777,-0.38438 z m 44.085631,-3.42498 c 0.19953,-0.24042 0.28028,-1.28175 0.23084,-2.97656 l -0.0761,-2.60679 -6.2095,-0.0712 c -3.41522,-0.0391 -6.30972,-0.17139 -6.43222,-0.29388 -0.2663,-0.26631 -0.32042,-2.1163 -0.0837,-2.86206 0.16107,-0.50747 0.39913,-0.5297 5.68133,-0.5305 3.03227,-5.3e-4 5.64932,-0.085 5.81565,-0.18775 0.33151,-0.20488 0.40161,-2.53323 0.13487,-4.47932 l -0.16756,-1.22249 -5.71942,-0.0712 -5.71942,-0.0712 v -1.5875 -1.5875 l 5.82084,-0.007 c 3.20145,-0.004 5.96966,-0.10009 6.15156,-0.21405 0.40378,-0.25297 0.46935,-5.61532 0.0717,-5.8611 -0.14248,-0.0881 -4.43963,-0.17987 -9.54923,-0.20402 -8.042896,-0.038 -9.320207,0.01 -9.513859,0.3558 -0.27007,0.48258 -0.411747,24.11895 -0.147134,24.5471 0.133358,0.21578 2.902583,0.30083 9.795203,0.30083 7.90584,0 9.66369,-0.0656 9.91617,-0.36978 z m 126.42717,-2.34953 c 0.26038,-0.20147 0.33073,-5.48055 0.33073,-24.81476 V 87.268996 l -0.58803,-0.41188 c -0.53033,-0.37146 -13.66026,-0.41188 -133.79219,-0.41188 -123.576574,0 -133.239122,0.0316 -133.688005,0.43789 -0.462117,0.41821 -0.483854,1.53908 -0.483854,24.950214 0,18.71236 0.07512,24.58745 0.3175,24.82982 0.638383,0.63839 1.770985,0.32271 3.844573,-1.07156 3.901175,-2.62312 8.121931,-5.16957 12.3743857,-7.46566 1.3096874,-0.70716 2.7979687,-1.52072 3.3072916,-1.80792 2.0009537,-1.12829 10.8792669,-5.47444 13.7583326,-6.73504 4.6931411,-2.05489 9.4081641,-4.03357 9.6116711,-4.03357 0.101024,0 0.688396,-0.22387 1.305275,-0.49748 1.00453,-0.44557 2.921362,-1.18555 6.942428,-2.68008 4.667128,-1.73466 12.236196,-4.11123 19.182291,-6.02294 3.351223,-0.92232 5.047692,-1.33803 9.921875,-2.43132 0.582083,-0.13056 1.594114,-0.35993 2.248958,-0.5097 1.997758,-0.45692 6.120122,-1.29156 7.9375,-1.60707 0.945885,-0.16422 2.315104,-0.41004 3.042708,-0.54627 0.727604,-0.13623 2.215886,-0.37092 3.307292,-0.52152 1.091406,-0.15061 2.817812,-0.38843 3.836458,-0.52849 4.431448,-0.609324 9.806908,-1.185554 15.345833,-1.645034 6.077916,-0.5042 28.631807,-0.40617 34.528127,0.15008 2.54662,0.24024 5.88037,0.55155 7.40834,0.6918 1.52797,0.14026 3.73062,0.3871 4.89479,0.54853 1.16416,0.161444 2.89057,0.398994 3.83646,0.527904 11.46618,1.56266 22.2015,3.85283 34.925,7.45057 3.84536,1.08733 12.9284,4.01641 16.00729,5.162 0.58208,0.21658 1.71317,0.63195 2.51354,0.92303 0.80036,0.29109 1.69333,0.63556 1.98437,0.76551 0.29104,0.12994 1.36261,0.54416 2.38125,0.92049 4.24903,1.56976 12.34518,5.14966 18.78542,8.30641 6.09434,2.98721 7.90494,3.93072 12.17083,6.34226 0.58209,0.32905 1.71318,0.96749 2.51354,1.41875 0.80037,0.45126 2.64584,1.59155 4.10105,2.53399 4.6796,3.03067 4.88902,3.11397 5.88697,2.34178 z M -21.336459,111.195 c -0.01153,-21.101944 -10e-4,-21.558104 0.504049,-21.828394 0.356664,-0.19089 40.91127,-0.25557 131.43533,-0.20965 l 130.9195,0.0664 0.0677,21.761984 c 0.0586,18.8431 0.0164,21.76198 -0.31512,21.76198 -0.21053,0 -0.4494,-0.10778 -0.53081,-0.23951 -0.12512,-0.20244 -1.03881,-0.76835 -4.953,-3.06778 -0.24773,-0.14552 -1.38126,-0.78968 -2.51895,-1.43148 -1.13771,-0.64179 -2.48527,-1.40519 -2.9946,-1.69645 -3.71988,-2.12726 -13.35575,-6.90127 -17.12544,-8.48466 -0.90603,-0.38056 -2.27524,-0.97417 -3.04271,-1.31914 -4.61433,-2.07411 -12.52163,-5.19223 -13.16709,-5.19223 -0.24378,0 -0.52483,-0.0816 -0.62456,-0.18133 -0.0997,-0.0997 -0.62559,-0.34261 -1.16857,-0.53973 -2.65948,-0.96547 -5.69088,-2.00992 -7.60183,-2.61916 -1.16417,-0.37116 -2.77151,-0.89414 -3.57188,-1.16219 -3.49923,-1.17192 -14.68547,-4.20528 -17.59479,-4.77117 -0.99572,-0.19368 -3.61022,-0.79933 -5.68854,-1.31777 -1.0984,-0.27399 -4.93173,-1.037184 -6.61458,-1.316914 -12.49834,-2.0775 -21.98806,-3.19273 -31.61882,-3.71583 -6.66923,-0.36224 -27.208777,-0.1936 -32.278064,0.26502 -4.868399,0.44044 -12.766201,1.30237 -14.684374,1.60257 -8.222456,1.28688 -15.314125,2.588324 -19.579166,3.593124 -4.547185,1.07127 -8.397817,2.02075 -8.995834,2.21816 -0.363802,0.1201 -2.090208,0.59751 -3.836458,1.06092 -1.74625,0.46341 -3.381742,0.9518 -3.63443,1.08531 -0.252688,0.13351 -0.615445,0.24274 -0.80613,0.24274 -0.377013,0 -11.685643,3.77184 -14.477148,4.82866 -4.765397,1.8041 -6.285396,2.39244 -7.011458,2.71393 -0.436562,0.19331 -1.329531,0.55774 -1.984375,0.80985 -0.654843,0.25211 -1.303734,0.55954 -1.441979,0.68318 -0.138245,0.12364 -0.408712,0.2248 -0.601041,0.2248 -0.192325,0 -1.388903,0.4873 -2.659062,1.0829 -1.2701551,0.5956 -3.4773596,1.6105 -4.9048951,2.25533 -2.8201143,1.27388 -9.7863129,4.7664 -12.7503129,6.39242 -3.589835,1.96934 -4.776364,2.63539 -6.163207,3.45971 -0.770388,0.4579 -1.514528,0.83255 -1.653645,0.83255 -0.139117,0 -0.25294,0.11907 -0.25294,0.26459 0,0.14552 -0.120895,0.26458 -0.268654,0.26458 -0.24093,0 -1.408441,0.70423 -4.243485,2.55964 -0.517144,0.33845 -1.078992,0.61536 -1.248551,0.61536 -0.232042,0 -0.311199,-5.33031 -0.32006,-21.55233 z m 18.2286627,4.47578 c 3.03395845,-0.71514 5.7702793,-2.69611 7.2780762,-5.26897 0.6988201,-1.19245 1.4760945,-4.12245 1.4760945,-5.56425 0,-2.25252 -1.0183627,-4.926214 -2.6883598,-7.058254 -1.604981,-2.04903 -5.5203856,-3.92573 -8.1903451,-3.92573 -4.0883287,0 -8.0071255,2.44217 -9.9771515,6.217714 -0.941482,1.80434 -0.966379,1.92711 -0.965829,4.7625 5.29e-4,2.70371 0.05858,3.03256 0.8174,4.63021 1.491803,3.14088 4.415996,5.48176 7.775119,6.22414 2.007009,0.44356 2.5281821,0.44153 4.4749957,-0.0174 z m -3.945829,-2.74073 c -2.546659,-0.5666 -4.6383797,-2.28848 -5.7623157,-4.74348 -2.419597,-5.2851 1.641973,-11.423184 7.5581784,-11.422374 3.2092389,4.5e-4 6.728213,2.66119 7.6322043,5.770814 1.4951577,5.14316 -1.88401595,10.051 -7.2260906,10.49502 -0.7017641,0.0583 -1.6926535,0.0133 -2.2019764,-0.1 z m 5.5068415,-2.87039 c 0.049996,-0.51848 0.286213,-0.96836 0.59531248,-1.13379 0.77614457,-0.41538 0.73533792,-2.67335 -0.0548905,-3.03715 -0.5379984,-0.24768 -0.5646076,-0.42298 -0.51485,-3.39182 0.034914,-2.08331 -0.051676,-3.256134 -0.2588287,-3.505734 -0.1984904,-0.23917 -0.8301142,-0.37509 -1.7430246,-0.37509 -1.2285932,0 -1.5336964,0.10678 -2.1504153,0.75261 -1.2281193,1.286104 -4.9189706,5.387614 -5.4105596,6.012564 -0.518086,0.65864 -0.603963,1.8373 -0.209468,2.8749 0.255448,0.67188 0.287281,0.67868 3.1750007,0.67868 h 2.9169653 v 0.88194 c 0,0.48508 0.08441,0.96636 0.187579,1.06953 0.1031684,0.10317 0.9068408,0.15278 1.7859374,0.11024 1.5913549,-0.077 1.5987209,-0.0811 1.6812418,-0.93688 z m -5.5873378,-4.21602 c -0.1832393,-0.29649 1.5850549,-2.28297 1.8735182,-2.10469 0.3241725,0.20035 0.053938,2.02025 -0.3006148,2.02449 -0.1659803,0.002 -0.5562354,0.0719 -0.867234,0.15535 -0.3109987,0.0834 -0.6285497,0.0496 -0.7056694,-0.0752 z m 234.1096816,9.947 c 4.77865,-0.88338 8.3728,-4.57169 9.14814,-9.38779 0.43622,-2.70962 -0.31179,-5.59042 -2.08397,-8.025984 -2.62157,-3.60294 -7.19816,-5.20965 -11.48741,-4.03291 -4.92299,1.35061 -8.09077,5.31097 -8.17887,10.225254 -0.0596,3.32413 0.91165,5.77155 3.21686,8.10608 1.63285,1.65361 3.28761,2.53352 5.67586,3.0181 2.11398,0.42894 1.9398,0.42437 3.70939,0.0973 z m -3.44481,-2.78358 c -2.08578,-0.52017 -4.46534,-2.37936 -5.51596,-4.3097 -0.62738,-1.15271 -0.74025,-1.67678 -0.76121,-3.53452 -0.0301,-2.66678 0.61088,-4.35758 2.25765,-5.955394 1.57308,-1.5263 2.99639,-2.18029 5.11812,-2.35169 3.87889,-0.31334 7.36739,2.08046 8.477,5.816914 0.55506,1.86908 0.35583,3.97667 -0.55111,5.8304 -0.871,1.78026 -1.88406,2.79194 -3.73199,3.72691 -1.33245,0.67416 -4.0848,1.07828 -5.2925,0.77708 z m 5.59402,-2.56814 c 1.17961,-0.61 1.74308,-1.6268 1.74308,-3.14547 0,-0.99402 -0.14377,-1.45526 -0.60744,-1.94882 l -0.60745,-0.6466 0.61012,-1.08556 c 0.55281,-0.98358 0.57978,-1.18846 0.28718,-2.18108 -0.44251,-1.501144 -1.14772,-2.179264 -2.81011,-2.702144 -3.43447,-1.08028 -6.9406,0.39104 -7.2963,3.061834 -0.0846,0.6355 -0.0252,0.6645 1.51432,0.7389 1.33777,0.0647 1.68319,-0.0118 2.09152,-0.46302 0.87363,-0.96534 3.32199,-0.49114 2.91674,0.56492 -0.19775,0.51534 -0.92912,0.73822 -2.43845,0.74309 -0.98061,0.003 -1.14064,0.0881 -1.29035,0.68458 -0.094,0.37453 -0.0393,0.96985 0.12158,1.32292 0.24774,0.54373 0.47817,0.64194 1.50618,0.64194 1.43042,0 2.23723,0.36594 2.23723,1.01473 0,1.24888 -1.99995,1.54063 -3.01953,0.44048 -0.52327,-0.56461 -0.84655,-0.66146 -2.20802,-0.66146 -1.09201,0 -1.63806,0.11223 -1.73156,0.35587 -0.22415,0.58413 0.75366,2.43304 1.60874,3.04191 1.48419,1.05684 5.52375,1.17902 7.37252,0.22298 z m -39.37747,12.50195 c 1.44799,-0.92164 2.16058,-1.53431 2.10716,-1.8117 -0.0808,-0.41969 -5.09581,-2.38311 -6.1243,-2.39773 -0.27189,-0.004 -1.33776,0.81497 -2.3686,1.81963 -1.62785,1.5865 -1.82819,1.88218 -1.52379,2.24896 0.19277,0.23226 0.55419,0.4223 0.80316,0.4223 0.24897,0 0.53347,0.0808 0.63223,0.17957 0.42835,0.42835 2.75524,1.11349 3.48651,1.02659 0.43987,-0.0523 1.7843,-0.7217 2.98763,-1.48762 z"
       id="path346" /></g></svg>
